tb/dump.vcd
$date
	Thu Mar 13 17:48:12 2025
$end

$version
	Synopsys VCS version W-2024.09-SP1_Full64
$end

$timescale
	100ps
$end

$comment Csum: 1 2217875dbd8d779d $end


$scope module uvm_pkg $end
$var time 64 ! setting_offset $end
$var reg 32 " uvm_global_random_seed [31:0] $end
$var reg 32 # UVM_UNBOUNDED_CONNECTIONS [31:0] $end
$var reg 1 $ uvm_start_uvm_declarations $end
$var reg 32 % setting_verbosity [31:0] $end
$var reg 1 & is_verdi_set_verbosity_called $end
$var reg 1 ' is_uvm_factory_trace_checked $end
$var reg 1 ( is_verdi_trace_fac $end
$upscope $end


$scope module $unit $end
$upscope $end


$scope module yapp_pkg $end
$upscope $end


$scope module channel_pkg $end
$upscope $end


$scope module hbus_pkg $end
$upscope $end


$scope module clock_and_reset_pkg $end
$upscope $end


$scope module hw_top $end
$var reg 32 ) clock_period [31:0] $end
$var reg 1 * run_clock $end
$var reg 1 + clock $end
$var reg 1 , reset $end

$scope module in0 $end
$var wire 1 - reset $end
$var reg 1 . in_data_vld $end
$var reg 1 / in_suspend $end
$var reg 8 0 in_data [7:0] $end
$var reg 1 1 monstart $end
$var reg 1 2 drvstart $end
$var wire 1 3 clock $end
$upscope $end


$scope module cr_if $end
$var reg 1 4 clock_cycle_count_reached $end
$var reg 1 5 clock $end
$var reg 1 , reset $end
$var reg 1 * run_clock $end
$var reg 32 ) clock_period [31:0] $end
$var reg 32 6 reset_delay [31:0] $end
$var reg 32 7 clock_cycles_to_count [31:0] $end

$scope task start_clock $end
$var reg 32 8 input_clock_period [31:0] $end
$var reg 32 9 input_reset_delay [31:0] $end
$var reg 1 : input_run_clock $end
$upscope $end


$scope task count_clocks $end
$var reg 32 ; new_count [31:0] $end
$upscope $end


$scope task get_current_cycle_count $end
$var reg 32 < cycles_counted [31:0] $end
$upscope $end

$upscope $end


$scope module h_if $end
$var wire 1 - reset $end
$var reg 1 = hen $end
$var reg 1 > hwr_rd $end
$var reg 16 ? haddr [15:0] $end
$var wire 8 @ hdata_w [7:0] $end
$var reg 1 A monstart $end
$var reg 1 B masterstart $end
$var reg 1 C slavestart $end
$var wire 1 3 clock $end
$var reg 8 D hdata [7:0] $end
$var reg 1 E has_checks $end
$var reg 1 F has_coverage $end

$scope task master_send_to_dut $end
$var reg 16 G ha [15:0] $end
$var reg 1 H hrw [0:0] $end
$var reg 8 I hd [7:0] $end
$var reg 32 J wait_between_cycle [31:0] $end
$var reg 1 K random_delay $end
$upscope $end


$scope task collect_packet $end
$var reg 16 L ha [15:0] $end
$var reg 1 M hrw [0:0] $end
$var reg 8 N hd [7:0] $end
$upscope $end


$scope task master_reset $end
$upscope $end


$scope task slave_reset $end
$upscope $end


$scope task slave_send_to_dut $end
$var reg 16 O ha [15:0] $end
$var reg 1 P hrw [0:0] $end
$var reg 8 Q hd [7:0] $end
$var reg 8 R max_pktsize_reg [7:0] $end
$var reg 8 S router_enable_reg [7:0] $end
$upscope $end

$upscope $end


$scope module ch0_if $end
$var wire 1 3 clock $end
$var wire 1 - reset $end
$var reg 1 T data_vld $end
$var reg 1 U suspend $end
$var reg 8 V data [7:0] $end
$var reg 1 W pktstart $end
$upscope $end


$scope module ch1_if $end
$var wire 1 3 clock $end
$var wire 1 - reset $end
$var reg 1 X data_vld $end
$var reg 1 Y suspend $end
$var reg 8 Z data [7:0] $end
$var reg 1 [ pktstart $end
$upscope $end


$scope module ch2_if $end
$var wire 1 3 clock $end
$var wire 1 - reset $end
$var reg 1 \ data_vld $end
$var reg 1 ] suspend $end
$var reg 8 ^ data [7:0] $end
$var reg 1 _ pktstart $end
$upscope $end


$scope module clkgen $end
$var reg 1 + clock $end
$var wire 1 * run_clock $end
$var reg 32 ) clock_period [31:0] $end
$upscope $end


$scope module dut $end
$var wire 1 3 clock $end
$var wire 1 - reset $end
$var wire 1 ` error $end
$var wire 8 a in_data [7:0] $end
$var wire 1 b in_data_vld $end
$var wire 1 c in_suspend $end
$var wire 8 d data_0 [7:0] $end
$var reg 1 e data_vld_0 $end
$var wire 1 f suspend_0 $end
$var wire 8 g data_1 [7:0] $end
$var reg 1 h data_vld_1 $end
$var wire 1 i suspend_1 $end
$var wire 8 j data_2 [7:0] $end
$var reg 1 k data_vld_2 $end
$var wire 1 l suspend_2 $end
$var wire 16 m haddr [15:0] $end
$var wire 8 @ hdata [7:0] $end
$var wire 1 n hen $end
$var wire 1 o hwr_rd $end
$var wire 1 p full_0 $end
$var wire 1 q full_1 $end
$var wire 1 r full_2 $end
$var wire 1 s empty_0 $end
$var wire 1 t empty_1 $end
$var wire 1 u empty_2 $end
$var wire 1 v almost_empty_0 $end
$var wire 1 w almost_empty_1 $end
$var wire 1 x almost_empty_2 $end
$var wire 1 y fifo_empty $end
$var wire 1 z fifo_empty0 $end
$var wire 1 { fifo_empty1 $end
$var wire 1 | fifo_empty2 $end
$var wire 1 } hold_0 $end
$var wire 1 ~ hold_1 $end
$var wire 1 "! hold_2 $end
$var wire 1 "" hold $end
$var wire 3 "# write_enb [2:0] $end
$var wire 2 "$ addr [1:0] $end
$var wire 8 "% router_enable [7:0] $end
$var wire 6 "& max_pkt_size [5:0] $end
$var wire 8 "' chan_data [7:0] $end
$var wire 8 "( parity_err_cnt [7:0] $end
$var wire 8 ") len_err_cnt [7:0] $end
$var wire 8 "* ill_addr_cnt [7:0] $end
$var wire 8 "+ addr0_cnt [7:0] $end
$var wire 8 ", addr1_cnt [7:0] $end
$var wire 8 "- addr2_cnt [7:0] $end
$var wire 1 ". resets [4] $end
$var wire 1 "/ resets [3] $end
$var wire 1 "0 resets [2] $end
$var wire 1 "1 resets [1] $end
$var wire 1 "2 resets [0] $end
$var wire 4 "3 intr_stat [3:0] $end
$var wire 4 "4 intr_ien [3:0] $end
$var wire 4 "5 intr_clr [3:0] $end
$var wire 7 "6 pkt_addr [6:0] $end
$var wire 8 "7 pkt_data [7:0] $end
$var wire 8 "8 parity_out [7:0] $end
$var wire 1 "9 parity_done $end
$var wire 1 ": pkt_start $end
$var wire 6 "; last_pkt_size [5:0] $end

$scope module reg_file $end
$var wire 1 3 clock $end
$var wire 1 - reset $end
$var wire 1 o wr_rd $end
$var wire 1 n en $end
$var wire 16 m addr [15:0] $end
$var wire 8 @ data [7:0] $end
$var wire 8 "( parity_err_cnt [7:0] $end
$var wire 8 ") len_err_cnt [7:0] $end
$var wire 8 "* ill_addr_cnt [7:0] $end
$var wire 8 "+ addr0_cnt [7:0] $end
$var wire 8 ", addr1_cnt [7:0] $end
$var wire 8 "- addr2_cnt [7:0] $end
$var wire 4 "3 int_stat [3:0] $end
$var wire 7 "6 pkt_addr [6:0] $end
$var wire 8 "7 pkt_data [7:0] $end
$var wire 8 "8 parity [7:0] $end
$var wire 6 "; last_pkt_size [5:0] $end
$var wire 1 "9 parity_done $end
$var wire 1 ": pkt_start $end
$var wire 4 "4 int_ien_reg [3:0] $end
$var wire 4 "5 int_clr [3:0] $end
$var wire 1 "< rst_reg [4] $end
$var wire 1 "= rst_reg [3] $end
$var wire 1 "> rst_reg [2] $end
$var wire 1 "? rst_reg [1] $end
$var wire 1 "@ rst_reg [0] $end
$var wire 6 "& max_pkt_len [5:0] $end
$var reg 8 "A reset_reg [7:0] $end
$var reg 1 "@ rst_yapp_fld $end
$var reg 1 "? rst_err_cnts_fld $end
$var reg 1 "> rst_addr_cnts_fld $end
$var reg 1 "= rst_ien_stat_fld $end
$var reg 1 "< rst_ram_fld $end
$var reg 1 "B rst_prot_err_fld $end
$var reg 8 "C ctrl_reg [7:0] $end
$var reg 6 "& pkt_len_fld [5:0] $end
$var reg 1 "D router_en_fld $end
$var reg 1 "E parity_err_cnt_en_fld $end
$var reg 1 "F len_err_cnt_en_fld $end
$var reg 1 "G addr0_cnt_en_fld $end
$var reg 1 "H addr1_cnt_en_fld $end
$var reg 1 "I addr2_cnt_en_fld $end
$var reg 1 "J illegal_addr_cnt_en_fld $end
$var reg 3 "K ien_reg [2:0] $end
$var reg 1 "L illegal_pkt_addr_ien_fld $end
$var reg 1 "M ovrsized_pkt_ien_fld $end
$var reg 1 "N parity_ien_fld $end
$var reg 3 "O int_reg [2:0] $end
$var reg 1 "P illegal_pkt_addr_int_fld $end
$var reg 1 "Q ovrsized_pkt_int_fld $end
$var reg 1 "R parity_int_fld $end
$var reg 8 "S parity_err_cnt_reg [7:0] $end
$var reg 8 "T max_pkt_len_err_cnt_reg [7:0] $end
$var reg 8 "U illegal_addr_cnt_reg [7:0] $end
$var reg 8 "V addr0_cnt_reg [7:0] $end
$var reg 8 "W addr1_cnt_reg [7:0] $end
$var reg 8 "X addr2_cnt_reg [7:0] $end
$var reg 8 "Y last_pkt_size_reg [7:0] $end
$var reg 8 "Z int_data [7:0] $end
$var reg 8 "[ int_en_reg [7:0] $end
$var reg 4 "5 int_clr_int [3:0] $end
$var reg 7 "\ pkt_addr_int [6:0] $end
$var reg 8 "] pkt_data_int [7:0] $end

$scope task reset_mem $end
$var integer 32 "^ i $end
$upscope $end

$var reg 8 "% en_reg [7:0] $end
$upscope $end


$scope module in_port $end
$var wire 1 3 clock $end
$var wire 1 - reset $end
$var wire 1 "" hold $end
$var wire 1 y fifo_empty $end
$var reg 1 "_ error $end
$var wire 1 ". resets [4] $end
$var wire 1 "/ resets [3] $end
$var wire 1 "0 resets [2] $end
$var wire 1 "1 resets [1] $end
$var wire 1 "2 resets [0] $end
$var wire 6 "& max_pkt_size [5:0] $end
$var wire 4 "5 intr_clr [3:0] $end
$var wire 6 "; last_pkt_size [5:0] $end
$var wire 8 "( parity_err_cnt [7:0] $end
$var wire 8 ") len_err_cnt [7:0] $end
$var wire 8 "* ill_addr_cnt [7:0] $end
$var wire 4 "3 intr_stat [3:0] $end
$var wire 4 "4 intr_ien [3:0] $end
$var wire 8 "+ addr0_cnt [7:0] $end
$var wire 8 ", addr1_cnt [7:0] $end
$var wire 8 "- addr2_cnt [7:0] $end
$var wire 7 "6 pkt_addr [6:0] $end
$var wire 8 "7 pkt_data [7:0] $end
$var wire 8 "8 parity_out [7:0] $end
$var wire 1 "9 parity_done $end
$var wire 1 ": pkt_start $end
$var wire 8 a in_data [7:0] $end
$var wire 1 b in_data_vld $end
$var wire 1 c in_suspend $end
$var wire 2 "$ addr [1:0] $end
$var wire 8 "' chan_data [7:0] $end
$var wire 3 "# write_enb [2:0] $end
$var reg 3 "` write_enb_r [2:0] $end
$var reg 1 "a fsm_write_enb $end
$var reg 2 "b state_r [1:0] $end
$var reg 2 "c state [1:0] $end
$var reg 8 "d parity [7:0] $end
$var reg 1 "e sus_data_in $end
$var reg 2 "f dest_chan_r [1:0] $end
$var reg 8 "( parity_err_cnt_int [7:0] $end
$var reg 8 ") len_err_cnt_int [7:0] $end
$var reg 8 "* ill_addr_cnt_int [7:0] $end
$var reg 8 "+ addr0_cnt_int [7:0] $end
$var reg 8 ", addr1_cnt_int [7:0] $end
$var reg 8 "- addr2_cnt_int [7:0] $end
$var reg 4 "3 intr_stat_int [3:0] $end
$var reg 7 "6 pkt_addr_int [6:0] $end
$var reg 8 "7 pkt_data_int [7:0] $end
$var reg 1 "9 parity_done_int $end
$var reg 8 "8 parity_out_int [7:0] $end
$var reg 1 ": pkt_start_int $end
$var reg 1 "g illegal_addr_int $end
$var reg 8 "h last_pkt_size_int [7:0] $end
$var reg 1 "i parity_intr_int $end
$var reg 1 "j illegal_pkt_addr_intr_int $end
$var reg 1 "k ovrsized_pkt_intr_int $end
$var wire 2 "$ dest_chan [1:0] $end
$var wire 1 "l chan0 $end
$var wire 1 "m chan1 $end
$var wire 1 "n chan2 $end
$var wire 1 "o header_valid $end
$var reg 8 "% router_enable [7:0] $end

$scope begin fsm_state $end
$upscope $end


$scope begin parity_calc $end
$upscope $end

$upscope $end


$scope module queue_0 $end
$var wire 1 3 clock $end
$var wire 1 - reset $end
$var wire 1 "p write_enb $end
$var wire 1 "q read_enb $end
$var wire 8 "' in_data [7:0] $end
$var wire 1 ". resets [4] $end
$var wire 1 "/ resets [3] $end
$var wire 1 "0 resets [2] $end
$var wire 1 "1 resets [1] $end
$var wire 1 "2 resets [0] $end
$var reg 8 "r data_out [7:0] $end
$var wire 1 s empty $end
$var wire 1 v almost_empty $end
$var wire 1 p full $end
$var reg 1 "s tmp_empty $end
$var reg 1 "t tmp_full $end
$var reg 4 "u write_ptr [3:0] $end
$var reg 4 "v read_ptr [3:0] $end

$scope begin fifo_core $end
$upscope $end

$upscope $end


$scope module queue_1 $end
$var wire 1 3 clock $end
$var wire 1 - reset $end
$var wire 1 "w write_enb $end
$var wire 1 "x read_enb $end
$var wire 8 "' in_data [7:0] $end
$var wire 1 ". resets [4] $end
$var wire 1 "/ resets [3] $end
$var wire 1 "0 resets [2] $end
$var wire 1 "1 resets [1] $end
$var wire 1 "2 resets [0] $end
$var reg 8 "y data_out [7:0] $end
$var wire 1 t empty $end
$var wire 1 w almost_empty $end
$var wire 1 q full $end
$var reg 1 "z tmp_empty $end
$var reg 1 "{ tmp_full $end
$var reg 4 "| write_ptr [3:0] $end
$var reg 4 "} read_ptr [3:0] $end

$scope begin fifo_core $end
$upscope $end

$upscope $end


$scope module queue_2 $end
$var wire 1 3 clock $end
$var wire 1 - reset $end
$var wire 1 "~ write_enb $end
$var wire 1 #! read_enb $end
$var wire 8 "' in_data [7:0] $end
$var wire 1 ". resets [4] $end
$var wire 1 "/ resets [3] $end
$var wire 1 "0 resets [2] $end
$var wire 1 "1 resets [1] $end
$var wire 1 "2 resets [0] $end
$var reg 8 #" data_out [7:0] $end
$var wire 1 u empty $end
$var wire 1 x almost_empty $end
$var wire 1 r full $end
$var reg 1 ## tmp_empty $end
$var reg 1 #$ tmp_full $end
$var reg 4 #% write_ptr [3:0] $end
$var reg 4 #& read_ptr [3:0] $end

$scope begin fifo_core $end
$upscope $end

$upscope $end

$upscope $end

$upscope $end


$scope module top $end

$scope begin unnamed$$_vcs_2 $end
$upscope $end

$upscope $end

$enddefinitions $end

#0
$dumpvars
1'
0&
0(
1$
bxxxxxxxxxxxxxxxxxxxxxxxxxxxxxxxxxxxxxxxxxxxxxxxxxxxxxxxxxxxxxxxx !
b11111111111111111111111111111111 #
b00000000000000000000000000000000 %
b01000010000001111100110001000111 "
0+
b00000000000000000000000000001010 )
bxxxxxxxx 0
1:
b00000000000000000000000000000000 7
b00000000000000000000000000000101 6
b00000000000000000000000000000000 ;
b00000000000000000000000000000000 <
b00000000000000000000000000001010 8
b00000000000000000000000000000101 9
0M
0H
0K
0P
bxxxxxxxx D
bxxxxxxxxxxxxxxxx ?
b0000000000000000 L
b00000000 N
b0000000000000000 G
b00000000 I
b00000000000000000000000000000000 J
b0000000000000000 O
b00000000 Q
b00000000 R
b00000000 S
bxxxxxxxx V
bxxxxxxxx Z
bxxxxxxxx ^
x"G
x"H
x"I
xe
xh
xk
xy
x"a
x""
x"J
x"g
x"L
x"P
x"j
x"_
x"F
x"M
x"Q
x"k
x"9
x"E
x"N
x"R
x"i
x":
x"D
x">
x"?
x"=
x"B
x"<
x"@
x"e
x"o
x"l
x}
x"m
x~
x"n
x"!
xz
x{
x|
bxxxxxxxx "+
bxxxxxxxx "V
bxxxxxxxx ",
bxxxxxxxx "W
bxxxxxxxx "-
bxxxxxxxx "X
bxxxxxxxx "C
bxx "$
bxx "f
bxxx "K
bxxxxxxxx "*
bxxxxxxxx "U
bxxxx "5
bxxxxxxxx "Z
bxxxxxxxx "[
bxxx "O
b0xxx "4
bxxxx "3
bxxxxxxxx "h
b00xxxxxx "Y
bxxxxxxxx ")
bxxxxxxxx "T
bxxxxxxxx "d
bxxxxxxxx "(
bxxxxxxxx "S
bxxxxxxxx "8
bxxxxxxx "6
bxxxxxxxx "7
bxxxxxx "&
bxxxxxxxxxxxxxxxxxxxxxxxxxxxxxxxx "^
b000xxxxx "A
bxx "c
bxx "b
bxxxxxxxx "%
bxxxxxx ";
x"s
x"t
bxxxxxxxx "r
bxxxx "v
bxxxx "u
x"z
x"{
bxxxxxxxx "y
bxxxx "}
bxxxx "|
x##
x#$
bxxxxxxxx #"
bxxxx #&
bxxxx #%
bxxx "`
bxxxxxxxx "]
bxxxxxxx "\
bxxxxxxxx a
bxxxxxxxx d
bxxxxxxxx g
bxxxxxxxx j
bxxxxxxxxxxxxxxxx m
x`
bxxx "#
x"p
x"w
x"~
bxxxxxxxx "'
x".
x"/
x"0
x"1
x"2
xs
xp
xt
xq
xu
xr
xv
xw
xx
xb
xc
xf
xi
xl
xn
xo
0,
1*
05
0-
03
02
x.
x/
01
04
1E
1F
x=
x>
0B
0A
0C
bxxxxxxxx @
xT
0W
xU
xX
0[
xY
x\
0_
x]
x"q
x"x
x#!
$end
bxxxx0xxx "%
#50
1+
13
15
b00000000000000000000000000000100 6
1,
1-
b00000000000000000000000001000010 "^
1U
1f
0"q
1Y
1i
0"x
1]
1l
0#!
0e
0T
0h
0X
0k
0\
b00000000 "Z
b111111 "&
b00111111 "C
1"D
bxxxx0xx1 "%
0"E
bxxxx0x01 "%
0"F
bxxxx0001 "%
0"G
bxxx00001 "%
0"H
bxx000001 "%
0"I
bx0000001 "%
0"J
b00000001 "%
b000 "K
0"L
0"M
0"N
0"P
0"Q
0"R
b0000 "5
b00000000 "S
b00000000 "T
b00000000 "U
b00000000 "V
b00000000 "W
b00000000 "X
0"<
0".
0"=
0"/
0">
0"0
0"?
0"1
0"B
b00 "b
b00 "f
b00000000 "+
b00000000 ",
b00000000 "-
b00000000 ")
b00000000 "*
b00000000 "(
b0000 "3
b0000000 "6
b00000000 "7
0"g
b00000000 "h
b000000 ";
0"i
0"j
0"k
b00000000 "d
0"9
0"_
0`
0"t
0p
0}
1"s
1s
1z
b0000 "u
b0000 "v
0"{
0q
0~
1"z
1t
1{
b0000 "|
b0000 "}
0#$
0r
0"!
1##
1u
1|
b0000 #%
b0000 #&
0.
0b
0"o
bzzzzzzzz 0
bzzzzzzzz a
bzzzzzzzz "'
0=
0n
bzzzzzzzz D
bzzzzzzzzzzzzzzzz ?
bzzzzzzzzzzzzzzzz m
0>
0o
b00 "c
0"e
0c
0/
0"a
b000 "#
0"p
0"w
0"~
b0000 "4
0v
0w
0""
1y
0x
b00 "$
1"l
0"m
0"n
b00000000 @
0":
#100
0+
03
05
bzzzzzzzz "Z
bzzzzzzzz @
b00000000 "Y
b0000000x "A
b00000000 "Z
b00000000 @
#150
1+
13
15
b00000000000000000000000000000011 6
#200
0+
03
05
bzzzzzzzz "Z
bzzzzzzzz @
b00000000 "Z
b00000000 @
#250
1+
13
15
b00000000000000000000000000000010 6
#300
0+
03
05
bzzzzzzzz "Z
bzzzzzzzz @
b00000000 "Z
b00000000 @
#350
1+
13
15
b00000000000000000000000000000001 6
#400
0+
03
05
bzzzzzzzz "Z
bzzzzzzzz @
b00000000 "Z
b00000000 @
#450
1+
13
15
b00000000000000000000000000000000 6
#500
0+
03
05
bzzzzzzzz "Z
bzzzzzzzz @
b00000000 "Z
b00000000 @
#550
1+
13
15
0,
0-
b0001000000000000 G
1H
b00010100 I
b00000000000000000000000000000001 J
#600
0+
03
05
bzzzzzzzz "Z
1B
bzzzzzzzz @
1=
1n
b0001000000000000 ?
b0001000000000000 m
1>
1o
b00010100 D
b00010100 @
#650
1+
13
15
1A
b0001000000000000 L
b00010100 N
1M
#700
0+
03
05
b010100 "&
b00010100 "C
0B
0>
0o
0=
0n
bzzzzzzzz D
bzzzzzzzz @
b0001000000000001 G
b00000001 I
#750
1+
13
15
0A
#800
0+
03
05
1B
1=
1n
b0001000000000001 ?
b0001000000000001 m
1>
1o
b00000001 D
b00000001 @
#850
1+
13
15
1A
b0001000000000001 L
b00000001 N
#900
0+
03
05
b00000000 "[
0B
0>
0o
0=
0n
bzzzzzzzz D
bzzzzzzzz @
b0001000000000000 G
0H
b11101000 I
b00000000000000000000000000000011 J
#950
1+
13
15
0A
#1000
0+
03
05
1B
1=
1n
b0001000000000000 ?
b0001000000000000 m
#1050
1+
13
15
1A
b0001000000000000 L
0M
#1100
0+
03
05
b00010100 "Z
b00010100 @
#1150
1+
13
15
b00010100 N
#1200
0+
03
05
b00010100 I
0B
0=
0n
b0001000000000001 G
b00011011 I
#1250
1+
13
15
0A
#1300
0+
03
05
bzzzzzzzz "Z
1B
bzzzzzzzz @
1=
1n
b0001000000000001 ?
b0001000000000001 m
#1350
1+
13
15
1A
b0001000000000001 L
#1400
0+
03
05
b00000001 "Z
b00000001 "[
b00000001 @
#1450
1+
13
15
b00000001 N
#1500
0+
03
05
b00000001 I
0B
0=
0n
#1550
1+
13
15
0A
#1600
0+
03
05
bzzzzzzzz "Z
bzzzzzzzz @
#1650
1+
13
15
#1700
0+
03
05
#1750
1+
13
15
#1800
0+
03
05
12
1.
1b
1"o
b00011100 0
b00011100 a
b00011100 "'
b01 "c
1"a
b001 "#
1"p
b00 "$
#1850
1+
13
15
11
#1900
0+
03
05
b01 "b
0"o
b00011100 "d
b00011100 "7
b00000000 "8
b00000111 "h
b000111 ";
1":
0"s
0s
0z
b0001 "u
b01010010 0
b01010010 a
b01010010 "'
0"a
b000 "#
0"p
1"a
b001 "#
1"p
0y
0"a
b000 "#
0"p
1"a
b001 "#
1"p
#1950
1+
13
15
1e
1T
b00011100 "r
b00011100 d
b00011100 V
#2000
0+
03
05
b00000111 "Y
b01001110 "d
b01010010 "7
b00011100 "8
b0000001 "6
b0010 "u
b10011110 0
b10011110 a
b10011110 "'
0"a
b000 "#
0"p
1"a
b001 "#
1"p
#2050
1+
13
15
#2100
0+
03
05
b11010000 "d
b10011110 "7
b01001110 "8
b0000010 "6
b0011 "u
b00001110 0
b00001110 a
b00001110 "'
0"a
b000 "#
0"p
1"a
b001 "#
1"p
#2150
1+
13
15
#2200
0+
03
05
b11011110 "d
b00001110 "7
b11010000 "8
b0000011 "6
b0100 "u
b00100101 0
b00100101 a
b00100101 "'
0"a
b000 "#
0"p
1"a
b001 "#
1"p
#2250
1+
13
15
#2300
0+
03
05
b11111011 "d
b00100101 "7
b11011110 "8
b0000100 "6
b0101 "u
b11111100 0
b11111100 a
b11111100 "'
0U
0f
1"q
0"a
b000 "#
0"p
1"a
b001 "#
1"p
#2350
1+
13
15
1W
#2400
0+
03
05
b00000111 "d
b11111100 "7
b11111011 "8
b0000101 "6
b0001 "v
b0110 "u
b00011001 0
b00011001 a
b00011001 "'
0"a
b000 "#
0"p
1"a
b001 "#
1"p
#2450
1+
13
15
b01010010 "r
b01010010 d
b01010010 V
#2500
0+
03
05
b00011110 "d
b00011001 "7
b00000111 "8
b0000110 "6
b0010 "v
b0111 "u
b10101001 0
b10101001 a
b10101001 "'
0"a
b000 "#
0"p
1"a
b001 "#
1"p
#2550
1+
13
15
b10011110 "r
b10011110 d
b10011110 V
#2600
0+
03
05
b10110111 "d
b10101001 "7
b00011110 "8
b0000111 "6
b0011 "v
b1000 "u
0.
0b
b10110111 0
b10110111 a
b10110111 "'
0"a
b000 "#
0"p
b00 "c
1"a
b001 "#
1"p
#2650
1+
13
15
01
b00001110 "r
b00001110 d
b00001110 V
#2700
0+
03
05
02
b00 "b
b00000000 "d
b0000000 "6
b00000000 "7
0":
b0100 "v
b1001 "u
bzzzzzzzz 0
bzzzzzzzz a
bzzzzzzzz "'
0"a
b000 "#
0"p
#2750
1+
13
15
b00100101 "r
b00100101 d
b00100101 V
#2800
0+
03
05
b0101 "v
#2850
1+
13
15
b11111100 "r
b11111100 d
b11111100 V
#2900
0+
03
05
b0110 "v
#2950
1+
13
15
b00011001 "r
b00011001 d
b00011001 V
#3000
0+
03
05
b0111 "v
#3050
1+
13
15
b10101001 "r
b10101001 d
b10101001 V
#3100
0+
03
05
b1000 "v
1v
#3150
1+
13
15
0e
0T
b10110111 "r
b10110111 d
b10110111 V
#3200
0+
03
05
b1001 "v
1"s
1s
1z
1U
1f
0"q
0v
1y
#3250
1+
13
15
0W
bxxxxxxxx "r
bxxxxxxxx d
bxxxxxxxx V
#3300
0+
03
05
#3350
1+
13
15
#3400
0+
03
05
#3450
1+
13
15
#3500
0+
03
05
#3550
1+
13
15
#3600
0+
03
05
#3650
1+
13
15
#3700
0+
03
05
#3750
1+
13
15
#3800
0+
03
05
#3850
1+
13
15
#3900
0+
03
05
#3950
1+
13
15
#4000
0+
03
05
#4050
1+
13
15
#4100
0+
03
05
#4150
1+
13
15
#4200
0+
03
05
#4250
1+
13
15
#4300
0+
03
05
#4350
1+
13
15
#4400
0+
03
05
12
1.
1b
1"o
b00010001 0
b00010001 a
b00010001 "'
b01 "c
1"a
b001 "#
1"p
b01 "$
0"l
1"m
b010 "#
0"p
1"w
#4450
1+
13
15
11
#4500
0+
03
05
b01 "b
0"o
b01 "f
b00010001 "d
b00010001 "7
b00000000 "8
b00000100 "h
b000100 ";
1":
0"z
0t
0{
b0001 "|
b01010000 0
b01010000 a
b01010000 "'
0"a
b000 "#
0"w
1"a
b010 "#
1"w
b01 "$
0y
0"a
b000 "#
0"w
1"a
b010 "#
1"w
#4550
1+
13
15
1h
1X
b00010001 "y
b00010001 g
b00010001 Z
#4600
0+
03
05
b00000100 "Y
b01000001 "d
b01010000 "7
b00010001 "8
b0000001 "6
b0010 "|
b10110111 0
b10110111 a
b10110111 "'
0"a
b000 "#
0"w
1"a
b010 "#
1"w
#4650
1+
13
15
#4700
0+
03
05
b11110110 "d
b10110111 "7
b01000001 "8
b0000010 "6
b0011 "|
b01101000 0
b01101000 a
b01101000 "'
0"a
b000 "#
0"w
1"a
b010 "#
1"w
#4750
1+
13
15
#4800
0+
03
05
b10011110 "d
b01101000 "7
b11110110 "8
b0000011 "6
b0100 "|
b11000000 0
b11000000 a
b11000000 "'
0"a
b000 "#
0"w
1"a
b010 "#
1"w
#4850
1+
13
15
#4900
0+
03
05
b01011110 "d
b11000000 "7
b10011110 "8
b0000100 "6
b0101 "|
0.
0b
b01011110 0
b01011110 a
b01011110 "'
0Y
0i
1"x
0"a
b000 "#
0"w
b00 "c
1"a
b010 "#
1"w
#4950
1+
13
15
01
1[
#5000
0+
03
05
02
b00 "b
b00000000 "d
b0000000 "6
b00000000 "7
0":
b0001 "}
b0110 "|
bzzzzzzzz 0
bzzzzzzzz a
bzzzzzzzz "'
0"a
b000 "#
0"w
#5050
1+
13
15
b01010000 "y
b01010000 g
b01010000 Z
#5100
0+
03
05
b0010 "}
#5150
1+
13
15
b10110111 "y
b10110111 g
b10110111 Z
#5200
0+
03
05
b0011 "}
#5250
1+
13
15
b01101000 "y
b01101000 g
b01101000 Z
#5300
0+
03
05
b0100 "}
#5350
1+
13
15
b11000000 "y
b11000000 g
b11000000 Z
#5400
0+
03
05
b0101 "}
1w
#5450
1+
13
15
0h
0X
b01011110 "y
b01011110 g
b01011110 Z
#5500
0+
03
05
b0110 "}
1"z
1t
1{
1Y
1i
0"x
0w
1y
#5550
1+
13
15
0[
bxxxxxxxx "y
bxxxxxxxx g
bxxxxxxxx Z
#5600
0+
03
05
#5650
1+
13
15
#5700
0+
03
05
#5750
1+
13
15
#5800
0+
03
05
#5850
1+
13
15
#5900
0+
03
05
#5950
1+
13
15
#6000
0+
03
05
#6050
1+
13
15
#6100
0+
03
05
#6150
1+
13
15
#6200
0+
03
05
#6250
1+
13
15
#6300
0+
03
05
#6350
1+
13
15
#6400
0+
03
05
#6450
1+
13
15
#6500
0+
03
05
#6550
1+
13
15
#6600
0+
03
05
#6650
1+
13
15
#6700
0+
03
05
12
1.
1b
1"o
b00000110 0
b00000110 a
b00000110 "'
b01 "c
1"a
b010 "#
1"w
b10 "$
0"m
1"n
b100 "#
0"w
1"~
#6750
1+
13
15
11
#6800
0+
03
05
b01 "b
0"o
b10 "f
b00000110 "d
b00000110 "7
b00000000 "8
b00000001 "h
b000001 ";
1":
0##
0u
0|
b0001 #%
b01110010 0
b01110010 a
b01110010 "'
0"a
b000 "#
0"~
1"a
b100 "#
1"~
b10 "$
0y
0"a
b000 "#
0"~
1"a
b100 "#
1"~
#6850
1+
13
15
1k
1\
b00000110 #"
b00000110 j
b00000110 ^
#6900
0+
03
05
b00000001 "Y
b01110100 "d
b01110010 "7
b00000110 "8
b0000001 "6
b0010 #%
0.
0b
b01110100 0
b01110100 a
b01110100 "'
0"a
b000 "#
0"~
b00 "c
1"a
b100 "#
1"~
#6950
1+
13
15
01
#7000
0+
03
05
02
b00 "b
b00000000 "d
b0000000 "6
b00000000 "7
0":
b0011 #%
bzzzzzzzz 0
bzzzzzzzz a
bzzzzzzzz "'
0"a
b000 "#
0"~
#7050
1+
13
15
#7100
0+
03
05
#7150
1+
13
15
#7200
0+
03
05
#7250
1+
13
15
#7300
0+
03
05
#7350
1+
13
15
#7400
0+
03
05
#7450
1+
13
15
#7500
0+
03
05
#7550
1+
13
15
#7600
0+
03
05
0]
0l
1#!
#7650
1+
13
15
1_
#7700
0+
03
05
b0001 #&
#7750
1+
13
15
b01110010 #"
b01110010 j
b01110010 ^
#7800
0+
03
05
b0010 #&
1x
#7850
1+
13
15
0k
0\
b01110100 #"
b01110100 j
b01110100 ^
#7900
0+
03
05
b0011 #&
1##
1u
1|
1]
1l
0#!
0x
1y
#7950
1+
13
15
0_
bxxxxxxxx #"
bxxxxxxxx j
bxxxxxxxx ^
#8000
0+
03
05
#8050
1+
13
15
#8100
0+
03
05
#8150
1+
13
15
#8200
0+
03
05
#8250
1+
13
15
#8300
0+
03
05
#8350
1+
13
15
#8400
0+
03
05
12
1.
1b
1"o
b00101100 0
b00101100 a
b00101100 "'
b01 "c
1"a
b100 "#
1"~
b00 "$
1"l
0"n
b001 "#
1"p
0"~
#8450
1+
13
15
11
